\definecolor{group0}{HTML}{2ecc71}
\definecolor{group1}{HTML}{E32636}
\node[draw, circle, fill=group1] (V6) at (-2.00, -2.00) {V6};
\node[draw, circle, fill=group1] (V8) at (2.00, -2.00) {V8};
\node[draw, circle, fill=group1] (V5) at (-2.83, 0.00) {V5};
\node[draw, circle, fill=group0] (V3) at (0.00, 2.83) {V3};
\node[draw, circle, fill=group0] (V4) at (-2.00, 2.00) {V4};
\node[draw, circle, fill=group1] (V7) at (-0.00, -2.83) {V7};
\node[draw, circle, fill=group0] (V1) at (2.83, 0.00) {V1};
\node[draw, circle, fill=group0] (V2) at (2.00, 2.00) {V2};
\path (V3) edge (V8)
\path (V3) edge (V5)
\path (V3) edge (V6)
\path (V6) edge (V4)
\path (V6) edge (V1)
\path (V1) edge (V8)
\path (V1) edge (V7)
\path (V4) edge (V5)
\path (V4) edge (V7)
\path (V7) edge (V2)
\path (V2) edge (V8)
\path (V2) edge (V5)
